{
  "computers": [
    {
      "name": "MSI GP60E Leapord",
      "description": "My 5 year old gaming Laptop",
      "specs": ["i7 single core", "12GB RAM", "Pretty good heater"],
      "price": 900,
      "rating": 10,
      "image": "https://asset.msi.com/resize/image/global/product/five_pictures1_3068_20140221172752.png62405b38c58fe0f07fcef2367d8a9ba1/1024.png",
      "id": 1
    },
    {
      "name": "Lenovo Thinkpad",
      "description": "Borrowed from Dad coz Gaming Laptop too heavy",
      "specs": [
        "Does not need to be plugged all the time",
        "Mouse in the middle of the keyboard that no one uses",
        "Looks professional"
      ],
      "price": 1200,
      "rating": 8,
      "image": "https://www.lenovo.com/medias/hero-thinkpad-l390.png?context=bWFzdGVyfHJvb3R8NTIyNDV8aW1hZ2UvcG5nfGhjMC9oMjcvOTkzNDMzOTk2NDk1OC5wbmd8ZTc1YmNkMWQ4ZmM4ZjBhNzkwZTJlYjViNDg5OTE4NDVjNzVjYjc2OTRmYzg2NGVmNzQzOGU4MjkyMWU4NmUzNA",
      "id": 2
    },
    {
      "name": "HP Elitebook",
      "description": "Work laptop provided by Experis AS",
      "specs": [
        "Lags already ngl",
        "Bang & Olufsen Audio (okay..)",
        "Quite light"
      ],
      "price": 1500,
      "rating": 6,
      "image": "https://hk-media.apjonlinecdn.com/catalog/product/cache/b3b166914d87ce343d4dc5ec5117b502/2/0/20Y99PA-1_T1595926046.png",
      "id": 3
    },
    {
      "name": "Dell XPS",
      "description": "Brother's Laptop",
      "specs": ["Good for work", "Good for games", "Good generally"],
      "price": 2100,
      "rating": 10,
      "image": "https://i.dell.com/das/xa.ashx/global-site-design%20web/00000000-0000-0000-0000-000000000000/1/LargePNG?id=Dell/Product_Images/Dell_Client_Products/Notebooks/XPS_Notebooks/XPS_15_9550_Non_Touch/global_spi/laptop-xps-15-9550-non-touch-gray-right-hero-504x350.psd",
      "id": 4
    }
  ]
}
